<?xml version="1.0" encoding="UTF-8"?>
<svg width="32px" height="32px" viewBox="0 0 32 32" version="1.1" xmlns="http://www.w3.org/2000/svg" xmlns:xlink="http://www.w3.org/1999/xlink">
    <!-- Generator: Sketch 52.5 (67469) - http://www.bohemiancoding.com/sketch -->
    <title>Algorithm</title>
    <desc>Created with Sketch.</desc>
    <g id="Discover-Temp" stroke="none" stroke-width="1" fill="none" fill-rule="evenodd">
        <g id="Discover" transform="translate(-1085.000000, -698.000000)" fill="#FFFFFF" fill-rule="nonzero">
            <g id="How-we-do-it" transform="translate(-1.000000, 592.000000)">
                <g id="3" transform="translate(926.000000, 90.000000)">
                    <path d="M160,44.7689917 L163.733333,44.7689917 L163.733333,45.8345099 L160,45.8345099 L160,44.7689917 Z M162.133333,42.6379553 L165.866667,42.6379553 L165.866667,43.7034735 L162.133333,43.7034735 L162.133333,42.6379553 Z M160,42.6379553 L161.066667,42.6379553 L161.066667,43.7034735 L160,43.7034735 L160,42.6379553 Z M162.133333,46.9000281 L165.866667,46.9000281 L165.866667,47.9655463 L162.133333,47.9655463 L162.133333,46.9000281 Z M160,46.9000281 L161.066667,46.9000281 L161.066667,47.9655463 L160,47.9655463 L160,46.9000281 Z M164.8,44.7689917 L165.866667,44.7689917 L165.866667,45.8345099 L164.8,45.8345099 L164.8,44.7689917 Z M186.133333,44.7689917 L189.866667,44.7689917 L189.866667,45.8345099 L186.133333,45.8345099 L186.133333,44.7689917 Z M188.266667,42.6379553 L192,42.6379553 L192,43.7034735 L188.266667,43.7034735 L188.266667,42.6379553 Z M186.133333,42.6379553 L187.2,42.6379553 L187.2,43.7034735 L186.133333,43.7034735 L186.133333,42.6379553 Z M188.266667,46.9000281 L192,46.9000281 L192,47.9655463 L188.266667,47.9655463 L188.266667,46.9000281 Z M186.133333,46.9000281 L187.2,46.9000281 L187.2,47.9655463 L186.133333,47.9655463 L186.133333,46.9000281 Z M190.933333,44.7689917 L192,44.7689917 L192,45.8345099 L190.933333,45.8345099 L190.933333,44.7689917 Z M160,18.6637955 L163.733333,18.6637955 L163.733333,19.7293137 L160,19.7293137 L160,18.6637955 Z M162.133333,16.5327591 L165.866667,16.5327591 L165.866667,17.5982773 L162.133333,17.5982773 L162.133333,16.5327591 Z M160,16.5327591 L161.066667,16.5327591 L161.066667,17.5982773 L160,17.5982773 L160,16.5327591 Z M162.133333,20.7948319 L165.866667,20.7948319 L165.866667,21.8603502 L162.133333,21.8603502 L162.133333,20.7948319 Z M160,20.7948319 L161.066667,20.7948319 L161.066667,21.8603502 L160,21.8603502 L160,20.7948319 Z M164.8,18.6637955 L165.866667,18.6637955 L165.866667,19.7293137 L164.8,19.7293137 L164.8,18.6637955 Z M186.133333,18.6637955 L189.866667,18.6637955 L189.866667,19.7293137 L186.133333,19.7293137 L186.133333,18.6637955 Z M188.266667,16.5327591 L192,16.5327591 L192,17.5982773 L188.266667,17.5982773 L188.266667,16.5327591 Z M186.133333,16.5327591 L187.2,16.5327591 L187.2,17.5982773 L186.133333,17.5982773 L186.133333,16.5327591 Z M188.266667,20.7948319 L192,20.7948319 L192,21.8603502 L188.266667,21.8603502 L188.266667,20.7948319 Z M186.133333,20.7948319 L187.2,20.7948319 L187.2,21.8603502 L186.133333,21.8603502 L186.133333,20.7948319 Z M190.933333,18.6637955 L192,18.6637955 L192,19.7293137 L190.933333,19.7293137 L190.933333,18.6637955 Z M189.244,37.4114553 C190.074667,38.243625 190.072733,39.5909062 189.2396,40.4206785 C188.406533,41.2504508 187.0578,41.2485195 186.227133,40.4163498 L178.041,45.2484749 C178.164,45.6526393 178.164,46.0841741 178.041,46.4883385 C177.698267,47.6143915 176.5066,48.2496401 175.379333,47.9072758 C174.252067,47.5649115 173.616133,46.3745279 173.958867,45.2484749 L165.772733,40.4163498 C165.503733,40.6853266 165.167467,40.8773862 164.798933,40.9725503 C163.6602,41.2665001 162.498533,40.5826372 162.204267,39.44513 C161.91,38.3076227 162.5946,37.1472067 163.733333,36.8532569 L163.733333,27.1122894 C163.363333,27.0171253 163.0258,26.8243331 162.756,26.5540911 C161.925333,25.7219213 161.927267,24.3746402 162.760333,23.5448679 C163.5934,22.7150956 164.942133,22.7170268 165.7728,23.5491965 L173.958933,18.7170714 C173.900733,18.5270096 173.869667,18.3297556 173.866667,18.1310364 C173.866667,16.954105 174.8218,16 176,16 C177.1782,16 178.133333,16.954105 178.133333,18.1310364 C178.130333,18.3297556 178.099267,18.5270096 178.041067,18.7170714 L186.227267,23.5491965 C186.496267,23.2802198 186.832533,23.0881601 187.201067,22.992996 C188.3398,22.6990462 189.501467,23.3829091 189.795733,24.5204164 C190.09,25.6579237 189.4054,26.8183396 188.266667,27.1122894 L188.266667,36.8532569 C188.636667,36.948421 188.9742,37.1412132 189.244,37.4114553 Z M187.733333,23.9913866 C187.1442,23.9913866 186.666667,24.4684058 186.666667,25.0569048 C186.666667,25.6454038 187.1442,26.122423 187.733333,26.122423 C188.322467,26.122423 188.8,25.6454038 188.8,25.0569048 C188.8,24.4684058 188.322467,23.9913866 187.733333,23.9913866 Z M176,17.0655182 C175.410867,17.0655182 174.933333,17.5425374 174.933333,18.1310364 C174.933333,18.7195354 175.410867,19.1965546 176,19.1965546 C176.589133,19.1965546 177.066667,18.7195354 177.066667,18.1310364 C177.066667,17.5425374 176.589133,17.0655182 176,17.0655182 Z M166.307733,24.4708698 C166.430733,24.8519257 166.430733,25.2618839 166.307733,25.6429398 L176,31.3637071 L185.692267,25.6429398 C185.569267,25.2618839 185.569267,24.8519257 185.692267,24.4708698 L177.506133,19.6387447 C177.506,19.6388779 177.5058,19.6390777 177.5056,19.6392774 C176.673733,20.4699155 175.3254,20.4696491 174.493867,19.6387447 L166.307733,24.4708698 Z M163.2,25.0569048 C163.2,25.6454038 163.677533,26.122423 164.266667,26.122423 C164.8558,26.122423 165.333333,25.6454038 165.333333,25.0569048 C165.333333,24.4684058 164.8558,23.9913866 164.266667,23.9913866 C163.677533,23.9913866 163.2,24.4684058 163.2,25.0569048 Z M164.266667,39.9741597 C164.855733,39.9741597 165.333333,39.4971406 165.333333,38.9086415 C165.333333,38.3201425 164.8558,37.8431233 164.266667,37.8431233 C163.677533,37.8431233 163.2,38.3201425 163.2,38.9086415 C163.2,39.4971406 163.677533,39.9741597 164.266667,39.9741597 Z M166.307733,39.4946766 L174.493867,44.3268016 C174.763533,44.0610214 175.0994,43.871892 175.466667,43.7791253 L175.466667,32.2869786 L165.772267,26.5646131 C165.502867,26.8305265 165.1672,27.0195893 164.8,27.1122894 L164.8,36.8532569 C164.842733,36.8635125 164.8852,36.8751 164.9272,36.8880194 C166.029,37.227054 166.647067,38.3940628 166.307733,39.4946766 Z M176,46.9000281 C176.589067,46.9000281 177.066667,46.4230089 177.066667,45.8345099 C177.066667,45.2460109 176.589133,44.7689917 176,44.7689917 C175.410867,44.7689917 174.933333,45.2460109 174.933333,45.8345099 C174.933333,46.4230089 175.410867,46.9000281 176,46.9000281 Z M185.6,38.9086415 C185.6036,37.9398857 186.260933,37.0954625 187.2,36.8532569 L187.2,27.1122894 C186.832733,27.0194561 186.496867,26.8303933 186.2272,26.5646131 L176.533333,32.2869786 L176.533333,43.7791253 C176.9006,43.871892 177.236467,44.0610214 177.506133,44.3268016 L185.692267,39.4946766 C185.634067,39.3046147 185.603,39.1073607 185.6,38.9086415 Z M187.733333,39.9741597 C188.3224,39.9741597 188.8,39.4971406 188.8,38.9086415 C188.8,38.3201425 188.322467,37.8431233 187.733333,37.8431233 C187.1442,37.8431233 186.666667,38.3201425 186.666667,38.9086415 C186.666667,39.4971406 187.1442,39.9741597 187.733333,39.9741597 Z M171.836456,33.8223165 L172.694602,33.3156907 L173.237322,34.2329953 L172.379176,34.7396211 L171.836456,33.8223165 Z M170.120866,34.8355166 L170.979011,34.3288908 L171.521731,35.2461955 L170.663586,35.7528212 L170.120866,34.8355166 Z M173.5535,32.8089607 L174.411646,32.3023349 L174.954366,33.2196395 L174.09622,33.7262653 L173.5535,32.8089607 Z M168.405799,35.847233 L169.263944,35.3406072 L169.806664,36.2579119 L168.948519,36.7645376 L168.405799,35.847233 Z M166.686911,36.861773 L167.545056,36.3551472 L168.087776,37.2724518 L167.229631,37.7790776 L166.686911,36.861773 Z M183.910999,37.2696859 L184.453613,36.3523813 L185.311758,36.8589075 L184.769145,37.7762122 L183.910999,37.2696859 Z M182.195663,36.2572912 L182.73817,35.33988 L183.596414,35.8463066 L183.053908,36.7637178 L182.195663,36.2572912 Z M180.477341,35.2458902 L181.019955,34.3285856 L181.8781,34.8351118 L181.335487,35.7524164 L180.477341,35.2458902 Z M177.043803,33.220967 L177.586416,32.3036624 L178.444561,32.8101886 L177.901948,33.7274932 L177.043803,33.220967 Z M178.762258,34.2318517 L179.304765,33.3144405 L180.16301,33.8208672 L179.620503,34.7382784 L178.762258,34.2318517 Z M175.466667,29.3189776 L176.533333,29.3189776 L176.533333,30.3844958 L175.466667,30.3844958 L175.466667,29.3189776 Z M175.466667,27.1879412 L176.533333,27.1879412 L176.533333,28.2534594 L175.466667,28.2534594 L175.466667,27.1879412 Z M175.466667,25.0569048 L176.533333,25.0569048 L176.533333,26.122423 L175.466667,26.122423 L175.466667,25.0569048 Z M175.466667,22.9258684 L176.533333,22.9258684 L176.533333,23.9913866 L175.466667,23.9913866 L175.466667,22.9258684 Z M175.466667,20.7948319 L176.533333,20.7948319 L176.533333,21.8603502 L175.466667,21.8603502 L175.466667,20.7948319 Z" id="Algorithm"></path>
                </g>
            </g>
        </g>
    </g>
</svg>