<?xml version="1.0" encoding="UTF-8"?>
<svg width="135px" height="118px" viewBox="0 0 135 118" version="1.1" xmlns="http://www.w3.org/2000/svg" xmlns:xlink="http://www.w3.org/1999/xlink">
    <!-- Generator: Sketch 52.5 (67469) - http://www.bohemiancoding.com/sketch -->
    <title>Discover Icon</title>
    <desc>Created with Sketch.</desc>
    <defs>
        <linearGradient x1="50.0016789%" y1="100%" x2="50.0016789%" y2="0%" id="linearGradient-1">
            <stop stop-color="#808080" stop-opacity="0.25" offset="0%"></stop>
            <stop stop-color="#808080" stop-opacity="0.12" offset="54%"></stop>
            <stop stop-color="#808080" stop-opacity="0.1" offset="100%"></stop>
        </linearGradient>
        <linearGradient x1="50%" y1="100%" x2="50%" y2="1.60952914e-14%" id="linearGradient-2">
            <stop stop-color="#B3B3B3" stop-opacity="0.25" offset="0%"></stop>
            <stop stop-color="#B3B3B3" stop-opacity="0.1" offset="54%"></stop>
            <stop stop-color="#B3B3B3" stop-opacity="0.05" offset="100%"></stop>
        </linearGradient>
        <linearGradient x1="50%" y1="100%" x2="50%" y2="-1.65937117e-14%" id="linearGradient-3">
            <stop stop-color="#000000" stop-opacity="0.12" offset="0%"></stop>
            <stop stop-color="#000000" stop-opacity="0.09" offset="55%"></stop>
            <stop stop-color="#000000" stop-opacity="0.02" offset="100%"></stop>
        </linearGradient>
        <linearGradient x1="50%" y1="100%" x2="50%" y2="0.0179912742%" id="linearGradient-4">
            <stop stop-color="#B3B3B3" stop-opacity="0.25" offset="0%"></stop>
            <stop stop-color="#B3B3B3" stop-opacity="0.1" offset="54%"></stop>
            <stop stop-color="#B3B3B3" stop-opacity="0.05" offset="100%"></stop>
        </linearGradient>
        <linearGradient x1="50%" y1="99.9768197%" x2="50%" y2="0%" id="linearGradient-5">
            <stop stop-color="#000000" stop-opacity="0.12" offset="1%"></stop>
            <stop stop-color="#000000" stop-opacity="0.09" offset="55%"></stop>
            <stop stop-color="#000000" stop-opacity="0.05" offset="100%"></stop>
        </linearGradient>
    </defs>
    <g id="Homepage" stroke="none" stroke-width="1" fill="none" fill-rule="evenodd">
        <g id="Homepage-@1440" transform="translate(-368.000000, -652.000000)">
            <g id="Products" transform="translate(0.000000, 640.000000)">
                <g id="Discover" transform="translate(165.000000, 0.000000)">
                    <g id="Discover-Icon" transform="translate(203.000000, 12.000000)">
                        <path d="M124.374086,29.0380133 C109.047595,4.24165279 76.6804496,-5.81673204 44.8479761,5.01691434 C28.0195847,10.7439756 11.7935596,22.2194478 3.75283101,44.4391645 C-10.6224956,84.1589763 19.5589208,96.8447105 39.2947331,100.882475 C48.8373615,102.838643 57.8246656,106.122496 66.0374989,110.592593 C80.8144029,118.646773 106.968571,125.770907 126.691762,92.2638621 C140.986773,67.9772261 134.576449,45.5546871 124.374086,29.0380133 Z" id="Path" fill-opacity="0.06" fill="#000000" fill-rule="nonzero"></path>
                        <g id="Group-2" transform="translate(16.000000, 4.000000)" fill-rule="nonzero">
                            <polygon id="Path" fill="url(#linearGradient-1)" points="36.8908784 92.4379923 3.41060513e-13 95.8937452 3.41060513e-13 9.27382239 36.8908784 5.81683398"></polygon>
                            <polygon id="Path" fill="url(#linearGradient-1)" points="36.8908784 92.4379923 73.7817568 95.8937452 73.7817568 9.27382239 36.8908784 5.81683398"></polygon>
                            <polygon id="Path" fill="url(#linearGradient-1)" points="109.949212 92.4379923 73.7817568 95.8937452 73.7817568 9.27382239 109.949212 5.81683398"></polygon>
                            <polygon id="Path" fill="#F5F5F5" points="37.0221847 90.0324324 1.17556306 93.354749 1.17556306 10.1250965 37.0221847 6.80401544"></polygon>
                            <polygon id="Path" fill="#FFFFFF" points="37.0221847 90.0324324 72.8675676 93.354749 72.8675676 10.1250965 37.0221847 6.80401544"></polygon>
                            <polygon id="Path" fill="#F5F5F5" points="108.714189 90.0324324 72.8675676 93.354749 72.8675676 10.1250965 108.714189 6.80401544"></polygon>
                            <polygon id="Path" fill="#009BFF" opacity="0.3" points="37.0221847 14.4481853 9.79346847 15.4007722 9.79346847 19.112278 9.79346847 24.1927413 9.79346847 27.9042471 32.9083333 27.9042471 32.9083333 23.3834749 37.0221847 23.2401544 43.2902027 25.1700386 43.2902027 16.3780695"></polygon>
                            <polygon id="Path" fill="#009BFF" opacity="0.3" points="37.0221847 84.3675676 6.46373874 87.2982239 6.46373874 76.1612355 37.0221847 73.2305792"></polygon>
                            <rect id="Rectangle" fill="#009BFF" opacity="0.3" x="55.0421171" y="75.7708108" width="13.3201577" height="10.1596911"></rect>
                            <polygon id="Path" fill="#009BFF" opacity="0.3" points="103.620495 81.2416988 82.8579955 82.9998456 82.8579955 69.5190734 103.620495 67.7609266"></polygon>
                            <path d="M99.3567568,8.75119691 C99.3567568,13.584556 90.8862613,27.2716602 90.8862613,27.2716602 C90.8862613,27.2716602 82.4157658,13.584556 82.4157658,8.75119691 C82.4157658,3.91783784 86.2087838,1.15463195e-13 90.8862613,1.15463195e-13 C95.5637387,1.15463195e-13 99.3567568,3.91783784 99.3567568,8.75119691 Z" id="Path" fill="url(#linearGradient-2)"></path>
                            <ellipse id="Oval" fill="url(#linearGradient-3)" cx="90.8862613" cy="8.14084942" rx="2.56047297" ry="2.64525097"></ellipse>
                            <path d="M98.725,8.76725869 C98.725,13.0854054 90.8862613,25.3121236 90.8862613,25.3121236 C90.8862613,25.3121236 83.0475225,13.0804633 83.0475225,8.76725869 C83.012023,5.95082131 84.4981476,3.33304143 86.9378608,1.91450239 C89.377574,0.495963348 92.3937098,0.495963348 94.833423,1.91450239 C97.2731362,3.33304143 98.7592608,5.95082131 98.7237613,8.76725869 L98.725,8.76725869 Z" id="Path" fill="#009BFF"></path>
                            <ellipse id="Oval" fill="#FFFFFF" cx="90.8862613" cy="8.2211583" rx="2.36970721" ry="2.36355212"></ellipse>
                            <path d="M27.9162162,63.5144402 C27.9162162,68.3823938 19.1942568,82.1708108 19.1942568,82.1708108 C19.1942568,82.1708108 10.4722973,68.3873359 10.4722973,63.5144402 C10.4722973,58.6415444 14.3768018,54.7014672 19.1942568,54.7014672 C24.0117117,54.7014672 27.9162162,58.6526641 27.9162162,63.5144402 Z" id="Path" fill="url(#linearGradient-4)"></path>
                            <ellipse id="Oval" fill="url(#linearGradient-5)" cx="19.193018" cy="62.9053282" rx="2.63727477" ry="2.66501931"></ellipse>
                            <path d="M27.0317568,63.4711969 C27.0317568,67.7893436 19.193018,80.0160618 19.193018,80.0160618 C19.193018,80.0160618 11.3542793,67.7844015 11.3542793,63.4711969 C11.4082173,59.1918967 14.9016154,55.7511007 19.1923986,55.7511007 C23.4831819,55.7511007 26.97658,59.1918967 27.030518,63.4711969 L27.0317568,63.4711969 Z" id="Path" fill="#009BFF"></path>
                            <ellipse id="Oval" fill="#FFFFFF" cx="19.193018" cy="62.926332" rx="2.36970721" ry="2.36355212"></ellipse>
                        </g>
                        <g id="Group" opacity="0.4" transform="translate(37.677928, 23.644788)" stroke="#64FFDA" stroke-width="1.35907336">
                            <path d="M0.0644144144,60.6196139 L0.640427928,60.1513514" id="Path"></path>
                            <path d="M1.72804054,59.2667181 L14.2244369,49.1008494" id="Path" stroke-dasharray="1.398610000904923"></path>
                            <polyline id="Path" points="14.7670045 48.6585328 15.3442568 48.1902703 16.0701577 48.3447104"></polyline>
                            <path d="M17.576464,48.6647104 L31.8851351,51.7077992" id="Path" stroke-dasharray="1.535752933458012"></path>
                            <polyline id="Path" points="32.6382883 51.868417 33.3641892 52.0228571 33.5710586 51.3111969"></polyline>
                            <path d="M33.990991,49.8668726 L48.0308559,1.48880309" id="Path" stroke-dasharray="1.503629353055623"></path>
                            <polyline id="Path" points="48.2402027 0.766023166 48.4470721 0.0543629344 49.1259009 0.357065637"></polyline>
                            <path d="M50.4377252,0.941467181 L65.5255631,7.66517375" id="Path" stroke-dasharray="1.433204680336028"></path>
                            <path d="M66.1820946,7.95799228 L66.8609234,8.25945946" id="Path"></path>
                        </g>
                    </g>
                </g>
            </g>
        </g>
    </g>
</svg>