<?xml version="1.0" encoding="UTF-8"?>
<svg width="119px" height="98px" viewBox="0 0 119 98" version="1.1" xmlns="http://www.w3.org/2000/svg" xmlns:xlink="http://www.w3.org/1999/xlink">
    <!-- Generator: Sketch 52.5 (67469) - http://www.bohemiancoding.com/sketch -->
    <title>Measure Icon</title>
    <desc>Created with Sketch.</desc>
    <defs>
        <linearGradient x1="50%" y1="100%" x2="50%" y2="0%" id="linearGradient-1">
            <stop stop-color="#808080" stop-opacity="0.25" offset="0%"></stop>
            <stop stop-color="#808080" stop-opacity="0.12" offset="54%"></stop>
            <stop stop-color="#808080" stop-opacity="0.1" offset="100%"></stop>
        </linearGradient>
        <rect id="path-2" x="0.0660570071" y="0.0886153846" width="17.5895131" height="11.9298462"></rect>
        <rect id="path-4" x="0.0660570071" y="0.0516923077" width="17.5895131" height="11.9298462"></rect>
        <linearGradient x1="0%" y1="50%" x2="100%" y2="50%" id="linearGradient-6">
            <stop stop-color="#808080" stop-opacity="0.25" offset="0%"></stop>
            <stop stop-color="#808080" stop-opacity="0.12" offset="54%"></stop>
            <stop stop-color="#808080" stop-opacity="0.1" offset="100%"></stop>
        </linearGradient>
        <linearGradient x1="0.00629643622%" y1="50.0018066%" x2="100.006296%" y2="50.0018066%" id="linearGradient-7">
            <stop stop-color="#808080" stop-opacity="0.25" offset="0%"></stop>
            <stop stop-color="#808080" stop-opacity="0.12" offset="54%"></stop>
            <stop stop-color="#808080" stop-opacity="0.1" offset="100%"></stop>
        </linearGradient>
        <linearGradient x1="50.0002221%" y1="100.000449%" x2="50.0002221%" y2="0.00140337287%" id="linearGradient-8">
            <stop stop-color="#B3B3B3" stop-opacity="0.25" offset="0%"></stop>
            <stop stop-color="#B3B3B3" stop-opacity="0.1" offset="54%"></stop>
            <stop stop-color="#B3B3B3" stop-opacity="0.05" offset="100%"></stop>
        </linearGradient>
        <linearGradient x1="49.9800916%" y1="99.9486916%" x2="49.9800916%" y2="0%" id="linearGradient-9">
            <stop stop-color="#000000" stop-opacity="0.12" offset="0%"></stop>
            <stop stop-color="#000000" stop-opacity="0.09" offset="55%"></stop>
            <stop stop-color="#000000" stop-opacity="0.02" offset="100%"></stop>
        </linearGradient>
        <linearGradient x1="49.9885247%" y1="100.005627%" x2="49.9885247%" y2="0.0076852476%" id="linearGradient-10">
            <stop stop-color="#000000" stop-opacity="0.12" offset="0%"></stop>
            <stop stop-color="#000000" stop-opacity="0.09" offset="55%"></stop>
            <stop stop-color="#000000" stop-opacity="0.02" offset="100%"></stop>
        </linearGradient>
    </defs>
    <g id="Homepage" stroke="none" stroke-width="1" fill="none" fill-rule="evenodd">
        <g id="Homepage-@1440" transform="translate(-945.000000, -656.000000)">
            <g id="Products" transform="translate(0.000000, 640.000000)">
                <g id="Measure" transform="translate(735.000000, 0.000000)">
                    <g id="Measure-Icon" transform="translate(207.000000, 16.000000)">
                        <path d="M112.412413,30.9034477 C99.0159239,12.4051693 70.7246413,4.90153581 42.9007015,12.9835205 C28.1914409,17.2559529 14.0086931,25.8167446 6.98050066,42.3928266 C-5.58459962,72.024116 20.796194,81.4877727 38.0467558,84.4999768 C46.3877199,85.9592932 54.2432894,88.4090733 61.4219141,91.7438003 C74.3380228,97.7522816 97.1987029,103.066941 114.438233,78.070424 C126.933132,59.9524041 121.330034,43.2250152 112.412413,30.9034477 Z" id="Path" fill-opacity="0.04" fill="#000000" fill-rule="nonzero" transform="translate(62.700248, 53.255323) rotate(175.000000) translate(-62.700248, -53.255323) "></path>
                        <g id="Group-3" transform="translate(4.000000, 0.121001)">
                            <g id="Group" opacity="0.5" transform="translate(18.838480, 16.002075)" fill="url(#linearGradient-1)" fill-rule="nonzero">
                                <rect id="Rectangle" x="0.0183491686" y="0.0258461538" width="54.8566746" height="74.1661538"></rect>
                            </g>
                            <rect id="Rectangle" fill="#F2F2F2" fill-rule="nonzero" x="19.5712233" y="17.0346908" width="53.1428622" height="71.5790769"></rect>
                            <rect id="Rectangle" fill="#E0E0E0" fill-rule="nonzero" x="23.7144656" y="20.052537" width="18.2855582" height="1"></rect>
                            <rect id="Rectangle" fill="#6C63FF" fill-rule="nonzero" opacity="0.7" x="23.7144656" y="22.6396139" width="18.2855582" height="1"></rect>
                            <rect id="Rectangle" fill="#E0E0E0" fill-rule="nonzero" x="44.7144774" y="20.052537" width="18.2855582" height="1"></rect>
                            <rect id="Rectangle" fill="#E0E0E0" fill-rule="nonzero" x="47.5708314" y="36.4389985" width="18.2855582" height="1"></rect>
                            <rect id="Rectangle" fill="#E0E0E0" fill-rule="nonzero" x="48.0002019" y="38.0193062" width="18.2855582" height="1"></rect>
                            <rect id="Rectangle" fill="#E0E0E0" fill-rule="nonzero" x="48.8577197" y="39.6008447" width="18.2855582" height="1"></rect>
                            <rect id="Rectangle" fill="#E0E0E0" fill-rule="nonzero" x="47.5708314" y="61.8789985" width="18.2855582" height="1"></rect>
                            <rect id="Rectangle" fill="#E0E0E0" fill-rule="nonzero" x="48.0002019" y="63.460537" width="18.2855582" height="1"></rect>
                            <rect id="Rectangle" fill="#E0E0E0" fill-rule="nonzero" x="48.8577197" y="65.0408447" width="18.2855582" height="1"></rect>
                            <g id="Group" opacity="0.5" transform="translate(23.853919, 30.525152)" fill="url(#linearGradient-1)" fill-rule="nonzero">
                                <rect id="Rectangle" x="0.00366983373" y="0.0196923077" width="19.4280998" height="19.8350769"></rect>
                            </g>
                            <rect id="Rectangle" fill="#F5F5F5" fill-rule="nonzero" x="23.9799169" y="30.9768447" width="19.1222803" height="18.9723077"></rect>
                            <g id="Group" opacity="0.5" transform="translate(24.587886, 32.125152)" fill="url(#linearGradient-1)" fill-rule="nonzero">
                                <rect id="Rectangle" x="0.0660570071" y="0.00123076923" width="17.8353919" height="12.3606154"></rect>
                            </g>
                            <rect id="e1f34465-d008-41db-868b-e00503fb87b3" fill="#FFFFFF" fill-rule="nonzero" x="24.7762708" y="32.2703832" width="17.5895131" height="11.9298462"></rect>
                            <g id="Clipped" transform="translate(46.606888, 39.632845)">
                                <mask id="mask-3" fill="white">
                                    <use xlink:href="#path-2"></use>
                                </mask>
                                <g id="cf34cfb5-9399-4bae-9cea-d47bbef6cb3a"></g>
                                <g id="Group" mask="url(#mask-3)" fill="#6C63FF" fill-rule="nonzero" opacity="0.4">
                                    <g transform="translate(-23.976247, -7.015385)">
                                        <polygon id="Path" points="0.654453682 11.152 5.08394299 4.25230769 6.94087886 7.27015385 10.9409976 3.10276923 14.3698456 7.27015385 17.369323 1.09046154 25.0833135 13.4510769 0.0831828979 12.5883077"></polygon>
                                        <ellipse id="Oval" cx="4.08330166" cy="1.37723077" rx="1.28566508" ry="1.29353846"></ellipse>
                                    </g>
                                </g>
                            </g>
                            <g id="Group" opacity="0.5" transform="translate(23.853919, 55.878999)" fill="url(#linearGradient-1)" fill-rule="nonzero">
                                <rect id="Rectangle" x="0.00366983373" y="0.107076923" width="19.4280998" height="19.8350769"></rect>
                            </g>
                            <rect id="Rectangle" fill="#F5F5F5" fill-rule="nonzero" x="23.9799169" y="56.4168447" width="19.1222803" height="18.9723077"></rect>
                            <g id="Group" opacity="0.5" transform="translate(24.587886, 57.478999)" fill="url(#linearGradient-1)" fill-rule="nonzero">
                                <rect id="Rectangle" x="0.0660570071" y="0.0886153846" width="17.8353919" height="12.3606154"></rect>
                            </g>
                            <rect id="c95ac4f6-be4d-44a3-92c2-5c8066e2b531" fill="#FFFFFF" fill-rule="nonzero" x="24.7762708" y="57.7103832" width="17.5895131" height="11.9298462"></rect>
                            <g id="Clipped" transform="translate(46.606888, 65.109768)">
                                <mask id="mask-5" fill="white">
                                    <use xlink:href="#path-4"></use>
                                </mask>
                                <g id="7439734d-5f7c-428f-88ce-e68b86a45c07"></g>
                                <g id="Group" mask="url(#mask-5)" fill="#BDBDBD" fill-rule="nonzero" opacity="0.4">
                                    <g transform="translate(-23.976247, -7.015385)">
                                        <polygon id="Path" points="0.654453682 11.1150769 5.08394299 4.21538462 6.94087886 7.23446154 10.9409976 3.06584615 14.3698456 7.23446154 17.369323 1.05353846 25.0833135 13.4141538 0.0831828979 12.5526154"></polygon>
                                        <ellipse id="Oval" cx="4.08330166" cy="1.34153846" rx="1.28566508" ry="1.29353846"></ellipse>
                                    </g>
                                </g>
                            </g>
                            <g id="Group" opacity="0.5" transform="translate(26.789786, 12.309768)" fill="url(#linearGradient-6)" fill-rule="nonzero">
                                <polygon id="Rectangle" transform="translate(34.207028, 41.804601) rotate(-78.760000) translate(-34.207028, -41.804601) " points="-2.83536075 14.4130341 71.3136418 14.32673 71.2494165 69.1961682 -2.89958606 69.2824722"></polygon>
                            </g>
                            <polygon id="Rectangle" fill="#FFFFFF" fill-rule="nonzero" transform="translate(60.912278, 53.804781) rotate(-78.760000) translate(-60.912278, -53.804781) " points="25.1621253 27.2688138 96.7246493 27.1855202 96.6624304 80.3407473 25.0999065 80.4240408"></polygon>
                            <polygon id="Rectangle" fill="#E0E0E0" fill-rule="nonzero" transform="translate(63.373395, 21.468566) rotate(11.240000) translate(-63.373395, -21.468566) " points="44.5112328 21.1591702 82.2348892 21.2033262 82.235558 21.7779625 44.5119016 21.7338065"></polygon>
                            <polygon id="Rectangle" fill="#E0E0E0" fill-rule="nonzero" transform="translate(52.847890, 74.758486) rotate(11.240000) translate(-52.847890, -74.758486) " points="33.9857276 74.4490899 71.709384 74.4932459 71.7100528 75.0678822 33.9863964 75.0237262"></polygon>
                            <polygon id="Rectangle" fill="#E0E0E0" fill-rule="nonzero" transform="translate(48.002704, 77.159226) rotate(11.240000) translate(-48.002704, -77.159226) " points="33.4272927 76.8548476 62.5774464 76.8889682 62.5781153 77.4636045 33.4279615 77.4294839"></polygon>
                            <polygon id="Rectangle" fill="#6C63FF" fill-rule="nonzero" opacity="0.7" transform="translate(38.394516, 78.609580) rotate(11.240000) translate(-38.394516, -78.609580) " points="32.9646234 78.3159067 43.8237408 78.3286174 43.8244096 78.9032537 32.9652922 78.890543"></polygon>
                            <polygon id="Rectangle" fill="#6C63FF" fill-rule="nonzero" opacity="0.7" transform="translate(53.483693, 22.862488) rotate(11.240000) translate(-53.483693, -22.862488) " points="44.0527502 22.564131 62.9139666 22.5862082 62.9146355 23.1608446 44.053419 23.1387673"></polygon>
                            <polygon id="Rectangle" fill="#E0E0E0" fill-rule="nonzero" transform="translate(60.270941, 27.589430) rotate(11.240000) translate(-60.270941, -27.589430) " points="43.2667582 27.2822091 77.2744552 27.3220155 77.275124 27.8966518 43.267427 27.8568454"></polygon>
                            <polygon id="Rectangle" fill="#3AD29F" fill-rule="nonzero" opacity="0.7" transform="translate(47.019235, 28.311029) rotate(11.240000) translate(-47.019235, -28.311029) " points="42.8753064 28.0188603 51.1624954 28.0285606 51.1631642 28.6031969 42.8759752 28.5934967"></polygon>
                            <polygon id="Rectangle" fill="#E0E0E0" fill-rule="nonzero" transform="translate(60.811982, 34.439290) rotate(11.240000) translate(-60.811982, -34.439290) " points="41.9498191 34.1298942 79.6734755 34.1740502 79.6741443 34.7486865 41.9504879 34.7045305"></polygon>
                            <g id="Group" opacity="0.5" transform="translate(40.836105, 44.063614)" fill="url(#linearGradient-7)" fill-rule="nonzero">
                                <polygon id="Rectangle" transform="translate(19.505173, 12.997534) rotate(-78.760000) translate(-19.505173, -12.997534) " points="9.75371367 -3.92336284 29.2962702 -3.94610895 29.2566314 29.9184312 9.71407484 29.9411773"></polygon>
                            </g>
                            <polygon id="Rectangle" fill="#FFFFFF" fill-rule="nonzero" transform="translate(60.361175, 56.990820) rotate(11.240000) translate(-60.361175, -56.990820) " points="43.6319064 47.4153074 77.0681996 47.454445 77.0904445 66.5663319 43.6541512 66.5271944"></polygon>
                            <polygon id="Rectangle" fill="#E0E0E0" fill-rule="nonzero" transform="translate(60.171521, 37.682763) rotate(11.240000) translate(-60.171521, -37.682763) " points="41.3093582 37.3733666 79.0330145 37.4175225 79.0336834 37.9921588 41.310027 37.9480029"></polygon>
                            <polygon id="Rectangle" fill="#6C63FF" fill-rule="nonzero" transform="translate(49.433067, 54.805783) rotate(11.240000) translate(-49.433067, -54.805783) " points="47.3528519 47.8338923 51.4970582 47.8387431 51.5132821 61.7776728 47.3690758 61.7728219"></polygon>
                            <polygon id="Rectangle" fill="#3AD29F" fill-rule="nonzero" transform="translate(56.273353, 58.518557) rotate(11.240000) translate(-56.273353, -58.518557) " points="54.1958143 53.8458273 58.3400206 53.8506781 58.3508924 63.1912868 54.2066861 63.1864359"></polygon>
                            <polygon id="Rectangle" fill="#F55F44" fill-rule="nonzero" transform="translate(63.142848, 62.090014) rotate(11.240000) translate(-63.142848, -62.090014) " points="61.0678181 59.5730931 65.2120244 59.5779439 65.2178778 64.6069345 61.0736715 64.6020837"></polygon>
                            <polygon id="Rectangle" fill="#FDD835" fill-rule="nonzero" transform="translate(70.930158, 61.009628) rotate(11.240000) translate(-70.930158, -61.009628) " points="68.8521174 55.9056131 72.9963237 55.9104639 73.0081994 66.1136423 68.8639931 66.1087915"></polygon>
                            <path d="M85.806829,43.0802293 C82.2459917,39.3539883 77.3413966,37.230997 72.203846,37.1920748 C67.0662953,37.1531525 62.1304809,39.2015925 58.5142755,42.8734601 C51.2969359,50.1940755 51.1746081,62.1140755 58.2341449,69.5897678 C64.6376717,76.3711251 74.9683274,77.518148 82.6874703,72.3048447 L96.4725891,86.7306908 C96.8279913,87.1024189 97.4155799,87.1139892 97.7851663,86.756537 L101.220131,83.4334601 C101.589596,83.0758814 101.601096,82.4846944 101.245819,82.1128447 L87.4643705,67.6882293 C92.9188662,60.1672854 92.2200075,49.7919717 85.806829,43.0802293 Z M81.5131235,66.2740755 C76.0827684,71.5265944 67.4485348,71.3555756 62.2278564,65.8920908 C57.0071779,60.428606 57.1769492,51.7414926 62.6070544,46.488712 C68.0371596,41.2359315 76.6714012,41.4065345 81.8923397,46.8697678 C84.3996828,49.4934724 85.7683547,53.0118912 85.6972371,56.6509448 C85.6261195,60.2899985 84.1210385,63.7515659 81.5131235,66.2740755 Z" id="Shape" fill="url(#linearGradient-8)" fill-rule="nonzero"></path>
                            <path d="M61.9578029,52.5633062 C60.4238124,52.5633062 60.4213658,54.9620755 61.9578029,54.9620755 C63.4942399,54.9620755 63.4942399,52.5633062 61.9578029,52.5633062 Z" id="Path" fill="url(#linearGradient-9)" fill-rule="nonzero"></path>
                            <path d="M72.6504751,44.8796139 C68.5219121,44.7860755 64.7652257,46.8697678 62.7676128,50.0156139 C62.1156057,51.0420755 63.9664252,51.9491524 64.6147625,50.9276139 C66.2686342,48.3233062 69.4112352,46.6691524 72.8107245,46.7553062 C76.3729097,46.8451524 79.6145962,48.8956139 81.3308551,51.7411524 C81.981639,52.820537 83.6881116,51.8396139 83.0434442,50.7663832 C80.9565321,47.3202293 76.9148219,44.9817678 72.6504751,44.8796139 Z" id="Path" fill="url(#linearGradient-10)" fill-rule="nonzero"></path>
                            <path d="M87.3028979,42.3516139 C83.7420606,38.6253729 78.8374655,36.5023816 73.6999149,36.4634594 C68.5623642,36.4245371 63.6265498,38.4729771 60.0103444,42.1448447 C52.7930048,49.4654601 52.670677,61.3854601 59.7302138,68.8611524 C66.134059,75.6421132 76.4646836,76.7886128 84.1835392,71.5749985 L97.9674347,86.0020755 C98.3228369,86.3738035 98.9104255,86.3853738 99.2800119,86.0279216 L102.714976,82.7048447 C103.084442,82.347266 103.095942,81.756079 102.740665,81.3842293 L88.9555463,66.9583832 C94.4106582,59.4388434 93.7138867,49.0644075 87.3028979,42.3516139 Z M83.0091924,65.5356139 C77.5788372,70.7881329 68.9446037,70.617114 63.7239252,65.1536293 C58.5032468,59.6901445 58.673018,51.0030311 64.1031232,45.7502505 C69.5332285,40.49747 78.1674701,40.6680729 83.3884086,46.1313062 C85.8957517,48.7550109 87.2644236,52.2734296 87.193306,55.9124833 C87.1221884,59.5515369 85.6171074,63.0131043 83.0091924,65.5356139 Z" id="Shape" fill="#009BFF" fill-rule="nonzero"></path>
                            <path d="M63.4538717,51.8334601 C61.9198812,51.8334601 61.9174347,54.2322293 63.4538717,54.2322293 C64.9903088,54.2322293 64.9903088,51.8334601 63.4538717,51.8334601 Z" id="Path" fill="#009BFF" fill-rule="nonzero"></path>
                            <path d="M74.1465439,44.1509985 C70.017981,44.0574601 66.2612945,46.1411524 64.2636817,49.2869985 C63.6116746,50.3134601 65.4624941,51.220537 66.1108314,50.1989985 C67.7647031,47.5946908 70.907304,45.940537 74.3067933,46.0266908 C77.8689786,46.116537 81.1106651,48.1669985 82.826924,51.012537 C83.4777078,52.0919216 85.1841805,51.1109985 84.5395131,50.0377678 C82.4489311,46.5817678 78.412114,44.2433062 74.1465439,44.1509985 Z" id="Path" fill="#009BFF" fill-rule="nonzero"></path>
                            <rect id="Rectangle" fill="#47E6B1" fill-rule="nonzero" x="14.8567102" y="81.7140755" width="1" height="2.44307692"></rect>
                            <polygon id="Rectangle" fill="#47E6B1" fill-rule="nonzero" transform="translate(15.071395, 82.934999) rotate(90.000000) translate(-15.071395, -82.934999) " points="14.8560109 81.7208952 15.2867801 81.7208952 15.2867801 84.1491019 14.8560109 84.1491019"></polygon>
                            <path d="M69.9555938,0.980537 C69.7108808,0.873386341 69.5850713,0.598511853 69.6632304,0.34176777 C69.6692155,0.322584341 69.6729113,0.302752708 69.6742399,0.282690847 C69.6822038,0.165540373 69.6124814,0.057121717 69.5030066,0.0164220555 C69.3935318,-0.024277606 69.2704928,0.0124778131 69.2008314,0.106690847 C69.1890613,0.122701756 69.1792072,0.140052118 69.1714727,0.158383154 C69.0649742,0.404594754 68.7917728,0.53117472 68.5365914,0.452537 C68.5175248,0.446515267 68.4978139,0.442796836 68.4778741,0.441460077 C68.3604958,0.43293308 68.2517742,0.503897192 68.2116708,0.615214707 C68.1715674,0.726532223 68.2098446,0.851104962 68.3053919,0.920229308 C68.3213054,0.932071404 68.3385501,0.941985897 68.3567696,0.94976777 C68.6014826,1.05691843 68.7272921,1.33179292 68.649133,1.588537 C68.6431479,1.60772043 68.6394521,1.62755206 68.6381235,1.64761392 C68.6287252,1.76644335 68.6994568,1.87692575 68.8108779,1.91745547 C68.922299,1.95798519 69.0468997,1.9185554 69.1152019,1.82115239 C69.1269719,1.80514148 69.1368261,1.78779111 69.1445606,1.76946008 C69.251059,1.52324848 69.5242604,1.39666851 69.7794418,1.47530623 C69.7985085,1.48132796 69.8182194,1.4850464 69.8381591,1.48638315 C69.9545966,1.49439579 70.0623553,1.42424648 70.1028072,1.31410124 C70.1432592,1.203956 70.1067275,1.08016355 70.0130879,1.01007546 C69.9952612,0.997789976 69.975938,0.987862379 69.9555938,0.980537 Z" id="Path" fill="#4D8AF0" fill-rule="nonzero"></path>
                            <path d="M16.8127316,19.0913062 C16.5680186,18.9841556 16.4422091,18.7092811 16.5203682,18.452537 C16.5263533,18.4333536 16.530049,18.4135219 16.5313777,18.3934601 C16.5393415,18.2763096 16.4696192,18.1678909 16.3601444,18.1271913 C16.2506696,18.0864916 16.1276306,18.123247 16.0579691,18.2174601 C16.0461991,18.233471 16.036345,18.2508213 16.0286105,18.2691524 C15.922112,18.515364 15.6489106,18.641944 15.3937292,18.5633062 C15.3746626,18.5572845 15.3549516,18.5535661 15.3350119,18.5522293 C15.2185745,18.5442167 15.1108157,18.614366 15.0703638,18.7245112 C15.0299118,18.8346565 15.0664435,18.9584489 15.1600831,19.028537 C15.1759966,19.0403791 15.1932413,19.0502936 15.2114608,19.0580755 C15.4561738,19.1652261 15.5819833,19.4401006 15.5038242,19.6968447 C15.4978391,19.7160281 15.4941433,19.7358598 15.4928147,19.7559216 C15.4848509,19.8730721 15.5545732,19.9814907 15.664048,20.0221904 C15.7735228,20.0628901 15.8965618,20.0261346 15.9662233,19.9319216 C15.9779933,19.9159107 15.9878474,19.8985603 15.9955819,19.8802293 C16.1020804,19.6340177 16.3752818,19.5074377 16.6304632,19.5860755 C16.6495298,19.5920972 16.6692408,19.5958156 16.6891805,19.5971524 C16.8056179,19.605165 16.9133767,19.5350157 16.9538286,19.4248705 C16.9942806,19.3147252 16.9577489,19.1909328 16.8641093,19.1208447 C16.8481958,19.1090026 16.8309511,19.0990881 16.8127316,19.0913062 Z" id="Path" fill="#FDD835" fill-rule="nonzero"></path>
                            <path d="M92.3843943,93.8309985 C92.1396813,93.7238479 92.0138718,93.4489734 92.0920309,93.1922293 C92.098016,93.1730459 92.1017118,93.1532142 92.1030404,93.1331524 C92.1110042,93.0160019 92.0412819,92.9075833 91.9318071,92.8668836 C91.8223323,92.8261839 91.6992933,92.8629394 91.6296318,92.9571524 C91.6178618,92.9731633 91.6080077,92.9905137 91.6002732,93.0088447 C91.4937747,93.2550563 91.2205733,93.3816363 90.9653919,93.3029985 C90.9463253,93.2969768 90.9266143,93.2932584 90.9066746,93.2919216 C90.7902372,93.283909 90.6824784,93.3540583 90.6420265,93.4642035 C90.6015746,93.5743488 90.6381063,93.6981412 90.7317458,93.7682293 C90.7476593,93.7800714 90.7649041,93.7899859 90.7831235,93.7977678 C91.0278365,93.9049184 91.153646,94.1797929 91.0754869,94.436537 C91.0695019,94.4557204 91.0658061,94.4755521 91.0644774,94.4956139 C91.0565136,94.6127644 91.1262359,94.7211831 91.2357107,94.7618827 C91.3451855,94.8025824 91.4682245,94.765827 91.537886,94.6716139 C91.549656,94.655603 91.5595101,94.6382527 91.5672447,94.6199216 C91.6737431,94.37371 91.9469445,94.24713 92.2021259,94.3257678 C92.2211926,94.3317895 92.2409035,94.3355079 92.2608432,94.3368447 C92.3772806,94.3448573 92.4850394,94.274708 92.5254913,94.1645628 C92.5659433,94.0544175 92.5294116,93.9306251 92.435772,93.860537 C92.4198585,93.8486949 92.4026138,93.8387804 92.3843943,93.8309985 Z" id="Path" fill="#FDD835" fill-rule="nonzero"></path>
                            <ellipse id="Oval" fill="#F55F44" fill-rule="nonzero" cx="39.2855701" cy="9.27346008" rx="1" ry="1"></ellipse>
                            <ellipse id="Oval" fill="#F55F44" fill-rule="nonzero" cx="100.713694" cy="20.052537" rx="1" ry="1"></ellipse>
                            <ellipse id="Oval" fill="#4D8AF0" fill-rule="nonzero" cx="95.8572803" cy="45.780537" rx="1" ry="1"></ellipse>
                            <ellipse id="Oval" fill="#47E6B1" fill-rule="nonzero" opacity="0.5" cx="0.857517815" cy="3.52330623" rx="1" ry="1"></ellipse>
                        </g>
                    </g>
                </g>
            </g>
        </g>
    </g>
</svg>