<?xml version="1.0" encoding="UTF-8"?>
<svg width="24px" height="24px" viewBox="0 0 24 24" version="1.1" xmlns="http://www.w3.org/2000/svg" xmlns:xlink="http://www.w3.org/1999/xlink">
    <!-- Generator: Sketch 55.2 (78181) - https://sketchapp.com -->
    <title>Icons/Service/Size</title>
    <desc>Created with Sketch.</desc>
    <g id="Icons/Service/Size" stroke="none" stroke-width="1" fill="none" fill-rule="evenodd">
        <path d="M18.7928932,19.5 L13.4242244,14.1313312 C13.2289622,13.936069 13.2289622,13.6194865 13.4242244,13.4242244 C13.6194865,13.2289622 13.936069,13.2289622 14.1313312,13.4242244 L19.5,18.7928932 L19.5,14.6666667 C19.5,14.3905243 19.7238576,14.1666667 20,14.1666667 C20.2761424,14.1666667 20.5,14.3905243 20.5,14.6666667 L20.5,20 C20.5,20.2761424 20.2761424,20.5 20,20.5 L14.6666667,20.5 C14.3905243,20.5 14.1666667,20.2761424 14.1666667,20 C14.1666667,19.7238576 14.3905243,19.5 14.6666667,19.5 L18.7928932,19.5 Z M5.20710678,4.5 L10.5757756,9.86866883 C10.7710378,10.063931 10.7710378,10.3805135 10.5757756,10.5757756 C10.3805135,10.7710378 10.063931,10.7710378 9.86866883,10.5757756 L4.5,5.20710678 L4.5,9.33333333 C4.5,9.60947571 4.27614237,9.83333333 4,9.83333333 C3.72385763,9.83333333 3.5,9.60947571 3.5,9.33333333 L3.5,4 C3.5,3.72385763 3.72385763,3.5 4,3.5 L9.33333333,3.5 C9.60947571,3.5 9.83333333,3.72385763 9.83333333,4 C9.83333333,4.27614237 9.60947571,4.5 9.33333333,4.5 L5.20710678,4.5 Z M5.20710678,19.5 L9.33333333,19.5 C9.60947571,19.5 9.83333333,19.7238576 9.83333333,20 C9.83333333,20.2761424 9.60947571,20.5 9.33333333,20.5 L4,20.5 C3.72385763,20.5 3.5,20.2761424 3.5,20 L3.5,14.6666667 C3.5,14.3905243 3.72385763,14.1666667 4,14.1666667 C4.27614237,14.1666667 4.5,14.3905243 4.5,14.6666667 L4.5,18.7928932 L9.86866883,13.4242244 C10.063931,13.2289622 10.3805135,13.2289622 10.5757756,13.4242244 C10.7710378,13.6194865 10.7710378,13.936069 10.5757756,14.1313312 L5.20710678,19.5 Z M18.7928932,4.5 L14.6666667,4.5 C14.3905243,4.5 14.1666667,4.27614237 14.1666667,4 C14.1666667,3.72385763 14.3905243,3.5 14.6666667,3.5 L20,3.5 C20.2761424,3.5 20.5,3.72385763 20.5,4 L20.5,9.33333333 C20.5,9.60947571 20.2761424,9.83333333 20,9.83333333 C19.7238576,9.83333333 19.5,9.60947571 19.5,9.33333333 L19.5,5.20710678 L14.1313312,10.5757756 C13.936069,10.7710378 13.6194865,10.7710378 13.4242244,10.5757756 C13.2289622,10.3805135 13.2289622,10.063931 13.4242244,9.86866883 L18.7928932,4.5 Z" id="ic-size" fill="#000000" fill-rule="nonzero"></path>
    </g>
</svg>